"Title","Unique identifier"
"Cycling, John I. Monroe collection of sports postcards, 1902-1931","NL113C51"
"Cycling, John I. Monroe collection of sports postcards, 1902-1931","NL113C55"
"Cycles Gladiator / Victor Bicycles","NL113C6R"
"Cycling, John I. Monroe collection of sports postcards, 1902-1931","NL113C69"
"Cycling, John I. Monroe collection of sports postcards, 1902-1931","NL113C6Q"
"Cycling, John I. Monroe collection of sports postcards, 1902-1931","NL113C6Y"
"Cycling, John I. Monroe collection of sports postcards, 1902-1931","NL113C70"
"Cycling, John I. Monroe collection of sports postcards, 1902-1931","NL113C71"
"Cycling, John I. Monroe collection of sports postcards, 1902-1931","NL113C76"
"Cycling, John I. Monroe collection of sports postcards, 1902-1931","NL113C7I"
"Cycling, John I. Monroe collection of sports postcards, 1902-1931","NL113C7L"
"Cycling, John I. Monroe collection of sports postcards, 1902-1931","NL113C7P"
"Cycling, John I. Monroe collection of sports postcards, 1902-1931","NL113C7V"
"Cycling, John I. Monroe collection of sports postcards, 1902-1931","NL113C80"
"Cycling, John I. Monroe collection of sports postcards, 1902-1931","NL113C8C"
"Cycling, John I. Monroe collection of sports postcards, 1902-1931","NL113C8H"
"Cycling, John I. Monroe collection of sports postcards, 1902-1931","NL113C8J"
"Cycling, John I. Monroe collection of sports postcards, 1902-1931","NL113C8R"
"Cycling, John I. Monroe collection of sports postcards, 1902-1931","NL113C8V"
"Cycling, John I. Monroe collection of sports postcards, 1902-1931","NL113CDB"
"Cycling, John I. Monroe collection of sports postcards, 1902-1931","NL113CDZ"
"Cycling, John I. Monroe collection of sports postcards, 1902-1931","NL113CE4"
"Cycling, John I. Monroe collection of sports postcards, 1902-1931","NL113CEC"
"Cycling, John I. Monroe collection of sports postcards, 1902-1931","NL113CEJ"
"Cycling, John I. Monroe collection of sports postcards, 1902-1931","NL113CEW"
"Cycling, John I. Monroe collection of sports postcards, 1902-1931","NL113CFA"
"Maxim Fahrrader","NL113C6T"
"Cycling, John I. Monroe collection of sports postcards, 1902-1931","NL113C63"
"Cycling, John I. Monroe collection of sports postcards, 1902-1931","NL113C46"
"Cycling, John I. Monroe collection of sports postcards, 1902-1931","NL113C5O"
"Van Hauwaert","NL113C6L"
"Cycling, John I. Monroe collection of sports postcards, 1902-1931","NL113C6H"
